<svg width="35" height="35" viewBox="0 0 35 35" fill="none" xmlns="http://www.w3.org/2000/svg">
<path d="M17.5 35C15.1302 35 12.863 34.5386 10.6982 33.6157C8.53353 32.6929 6.67074 31.451 5.10986 29.8901C3.54899 28.3293 2.30713 26.4665 1.38428 24.3018C0.461426 22.137 0 19.8698 0 17.5C0 15.1302 0.461426 12.863 1.38428 10.6982C2.30713 8.53353 3.54899 6.67074 5.10986 5.10986C6.67074 3.54899 8.53353 2.30713 10.6982 1.38428C12.863 0.461426 15.1302 0 17.5 0C19.8698 0 22.137 0.461426 24.3018 1.38428C26.4665 2.30713 28.3293 3.54899 29.8901 5.10986C31.451 6.67074 32.6929 8.53353 33.6157 10.6982C34.5386 12.863 35 15.1302 35 17.5C35 19.8698 34.5386 22.137 33.6157 24.3018C32.6929 26.4665 31.451 28.3293 29.8901 29.8901C28.3293 31.451 26.4665 32.6929 24.3018 33.6157C22.137 34.5386 19.8698 35 17.5 35ZM26.25 9.84375C26.25 9.54753 26.1418 9.29118 25.9253 9.07471C25.7088 8.85824 25.4525 8.75 25.1562 8.75H18.5938C18.2975 8.75 18.0412 8.85824 17.8247 9.07471C17.6082 9.29118 17.5 9.54753 17.5 9.84375C17.5 10.14 17.6082 10.3963 17.8247 10.6128C18.0412 10.8293 18.2975 10.9375 18.5938 10.9375H22.3535L17.8418 15.4492C17.6139 15.6771 17.5 15.9619 17.5 16.3037C17.5 16.6455 17.6196 16.9303 17.8589 17.1582C18.0981 17.3861 18.383 17.5 18.7134 17.5C19.0438 17.5 19.3229 17.3861 19.5508 17.1582L24.0625 12.6465V16.4062C24.0625 16.7025 24.1707 16.9588 24.3872 17.1753C24.6037 17.3918 24.86 17.5 25.1562 17.5C25.4525 17.5 25.7088 17.3918 25.9253 17.1753C26.1418 16.9588 26.25 16.7025 26.25 16.4062V9.84375ZM26.25 21.875H21.875L19.6875 24.0625C18.2292 23.6751 16.5031 22.4788 14.5093 20.4736C12.5155 18.4684 11.3249 16.748 10.9375 15.3125L13.125 13.125V8.75C12.5781 7.97526 11.9857 7.37142 11.3477 6.93848C10.7096 6.50553 10.2311 6.44857 9.91211 6.76758L7.62207 9.05762C6.36881 10.3109 6.18652 12.2819 7.0752 14.9707C7.96387 17.6595 9.67285 20.2686 12.2021 22.7979C14.7314 25.3271 17.3405 27.0361 20.0293 27.9248C22.7181 28.8135 24.6891 28.6312 25.9424 27.3779L28.2324 25.0879C28.5514 24.7689 28.5002 24.2448 28.0786 23.5156C27.6571 22.7865 27.0475 22.2396 26.25 21.875Z" fill="#006BA6"/>
</svg>
